Duygu Analizi
…
Duygu Analizi

Duygu analizinde duygular pozitif, negatif ve ntr olmak zere 3 genel balk altnda snflandrlr. Ayrca, bir metinde yer alan duygunun pozitif veya negatif gcnn derecesi saysal bir lekte temsil edilebilir.Bu almada 4 farkl duygu szlne sahip olan Rn hazr paketleriden syuzhet paketinden yararlanlmtr.

## # A tibble: 6,786 x 2
##    word        sentiment
##    <chr>       <chr>    
##  1 2-faces     negative 
##  2 abnormal    negative 
##  3 abolish     negative 
##  4 abominable  negative 
##  5 abominably  negative 
##  6 abominate   negative 
##  7 abomination negative 
##  8 abort       negative 
##  9 aborted     negative 
## 10 aborts      negative 
## # ... with 6,776 more rows

## # A tibble: 2,477 x 2
##    word       value
##    <chr>      <dbl>
##  1 abandon       -2
##  2 abandoned     -2
##  3 abandons      -2
##  4 abducted      -2
##  5 abduction     -2
##  6 abductions    -2
##  7 abhor         -3
##  8 abhorred      -3
##  9 abhorrent     -3
## 10 abhors        -3
## # ... with 2,467 more rows

## # A tibble: 13,875 x 2
##    word        sentiment
##    <chr>       <chr>    
##  1 abacus      trust    
##  2 abandon     fear     
##  3 abandon     negative 
##  4 abandon     sadness  
##  5 abandoned   anger    
##  6 abandoned   fear     
##  7 abandoned   negative 
##  8 abandoned   sadness  
##  9 abandonment anger    
## 10 abandonment fear     
## # ... with 13,865 more rows

En ok kullanlan kelimeler

cleandata<-data_word 
cleandata<-cleandata %>% anti_join(stop_words)
cleandata %>% dplyr::count(word,sort=TRUE)

## # A tibble: 29,305 x 2
##    word          n
##    <chr>     <int>
##  1          13554
##  2 game       6488
##  3 https      3506
##  4 account    2604
##  5 view       2409
##  6 gif        2407
##  7 tenor.com  2353
##  8 lol        2342
##  9 cvc        2303
## 10 time       2294
## # ... with 29,295 more rows
…
sentiment_pos<-subset(sentiments,sentiment=="positive")
sentiment_neg<-subset(sentiments,sentiment=="negative")

set.seed(2022)
positive_score<-aggregate(n~sentiment,data=sentiment_pos,sum)
negative_score<-aggregate(n~sentiment,data=sentiment_neg,sum)
ratio<-(positive_score$n/negative_score$n) ## %54 pozitif duygular arlkl

Belirli bir dnem iin

get_sentiments("bing") # negatif pozitif

## # A tibble: 6,786 x 2
##    word        sentiment
##    <chr>       <chr>    
##  1 2-faces     negative 
##  2 abnormal    negative 
##  3 abolish     negative 
##  4 abominable  negative 
##  5 abominably  negative 
##  6 abominate   negative 
##  7 abomination negative 
##  8 abort       negative 
##  9 aborted     negative 
## 10 aborts      negative 
## # ... with 6,776 more rows

get_sentiments("afinn") # -5 5 aras

## # A tibble: 2,477 x 2
##    word       value
##    <chr>      <dbl>
##  1 abandon       -2
##  2 abandoned     -2
##  3 abandons      -2
##  4 abducted      -2
##  5 abduction     -2
##  6 abductions    -2
##  7 abhor         -3
##  8 abhorred      -3
##  9 abhorrent     -3
## 10 abhors        -3
## # ... with 2,467 more rows

get_sentiments("nrc") # kelimelrin ierdii duygular fear happy anger

## # A tibble: 13,875 x 2
##    word        sentiment
##    <chr>       <chr>    
##  1 abacus      trust    
##  2 abandon     fear     
##  3 abandon     negative 
##  4 abandon     sadness  
##  5 abandoned   anger    
##  6 abandoned   fear     
##  7 abandoned   negative 
##  8 abandoned   sadness  
##  9 abandonment anger    
## 10 abandonment fear     
## # ... with 13,865 more rows
…
word<-c('',"'m" ,"'ll","'d","s","t", "f", "m","im","1","2","3","4","5","10","100", "https","lol","t's","m","haha","tho","fuck","fucked","fcked","fucking","fucks","fuckup","dick",'shit',"shitty","bullshit","shittiest","fuckng","fuckn","fuckin","fucker","fuck.gif","motherfucker","bitches","bitching", "bitch","damn") 
lexicon<-c("CURSE","CURSE","CURSE","CURSE","CURSE","CURSE","CURSE","CURSE","CURSE","CURSE","CURSE","CURSE","CURSE","CURSE","CURSE","CURSE","CURSE","CURSE","CURSE","CURSE","CURSE","CURSE","CURSE","CURSE","CURSE","CURSE","CURSE","CURSE","CURSE","CURSE","CURSE","CURSE","CURSE","CURSE","CURSE","CURSE","CURSE","CURSE","CURSE","CURSE","CURSE","CURSE","CURSE") #Kfrler ve szlkte olmayan baz kelimeler stop_word szlndeki kelimelerle birlikte karlmtr
curse_words<-data.frame(word,lexicon)
stop_words_curse<-rbind(stop_words,curse_words) 

En ok kullanlan kelimeler

cleandata<-data_word 
cleandata<-cleandata %>% anti_join(stop_words)
cleandata %>% dplyr::count(word,sort=TRUE)

## # A tibble: 4,710 x 2
##    word          n
##    <chr>     <int>
##  1            786
##  2 game        321
##  3 https       219
##  4 cvc         134
##  5 gif         130
##  6 tenor.com   129
##  7 view        129
##  8 land        127
##  9 account     124
## 10 lol         118
## # ... with 4,700 more rows
…
30 mays 4 nisan tarihleri fiyatn artnn en ok grld tarihlerdir. Yalnzca bu tarihler arasnda duygu analizi sonularna bakldnda pozitif snflandrlan kelimelerin negatif snfna giren kelimelere orannn % 61 olduu grlmtr. 3 aylk periyoddaki oran %54 idi.

Belirli bir dnem iin

12 mays 20 mays

En ok kullanlan kelimeler

cleandata<-data_word 
cleandata<-cleandata %>% anti_join(stop_words)
cleandata %>% dplyr:: count(word,sort=TRUE)

## # A tibble: 9,167 x 2
##    word        n
##    <chr>   <int>
##  1         2160
##  2 game      953
##  3 banned    892
##  4 account   722
##  5 ban       525
##  6 time      397
##  7 bot       392
##  8 people    390
##  9 https     365
## 10 lol       364
## # ... with 9,157 more rows
…
